…
``` r
# format dat for exp
At.hyp.dat2 <- At.hyp.dat %>% mutate(expnid=ifelse(exp=="A",0L,1L))
# format for light (non index)
At.hyp.dat2 <- At.hyp.dat2 %>% mutate(lightnid=ifelse(light=="H",0L,1L))
# format for line
At.hyp.dat2 <- At.hyp.dat2 %>% mutate(lineid=as.integer(as.factor(line)))
# format dat for plate
At.hyp.dat2 %>% group_by(plate,exp,light,line) %>% summarize(n())
```

    ## # A tibble: 1,303 x 5
    ## # Groups:   plate, exp, light [152]
    ##    plate exp   light  line `n()`
    ##    <chr> <chr> <chr> <dbl> <int>
    ##  1 10AH  A     H      6088    13
    ##  2 10AH  A     H      6899     8
    ##  3 10AH  A     H      6956    21
    ##  4 10AH  A     H      6962    14
    ##  5 10AH  A     H      6963    27
    ##  6 10AH  A     H      6976    13
    ##  7 10AH  A     H      8245    19
    ##  8 10AH  A     H      8312    18
    ##  9 10AH  A     H      8426    21
    ## 10 10AL  A     L      6088    17
    ## # … with 1,293 more rows
…
