…
b) create a new column "stem_length" that is the sum of epi, int1, int2, and int3

```r
F4phyE.day35.v2 <- F4phyE.day35 %>% mutate(stem_length=epi+int1+int2+int3) # %>% View()
F4phyE.day35.v2
```

```
## # A tibble: 88 x 13
##    genotype treatment  flat   day   epi  int1  int2  int3  pet1  pet2  pet3
##    <chr>    <chr>     <dbl> <dbl> <dbl> <dbl> <dbl> <dbl> <dbl> <dbl> <dbl>
##  1 phyB1/B2 shade         1    35  58.8 40.6   72.3  52.7  42.2  49.6  49.6
##  2 phyB1/B2 shade         1    35  69.6  4.91  56.6  35.5  49.8  34.6  47.6
##  3 phyB1/B2 shade         2    35  70.2 62.6   59.7  31.2  46.3  56.8  47.9
##  4 phyB1/B2 shade         3    35  54.6 38.6   67.6  35.2  39.1  66.6  68.8
##  5 phyB1/B2 shade         3    35  58.2 55.3  105.   40.0  44.8  65.3  60.6
##  6 phyB1/B2 shade         5    35  59.9 58.7   74.8  33.3  36.4  39.3  50.7
##  7 phyB1/B2 sun           1    35  37.4 28.1   32.3  15.4  32.5  39.8  45.4
##  8 phyB1/B2 sun           1    35  66.5 36.1   25.8  19.1  50.5  49.3  49.6
##  9 phyB1/B2 sun           2    35  44.0  3.02  37.0  12.2  36.1  40.6  29.9
## 10 phyB1/B2 sun           3    35  67.7 41.2   30.4  20.6  45.8  53.2  44.3
## # … with 78 more rows, and 2 more variables: pet4 <dbl>, stem_length <dbl>
```

c) although flats are listed as 1-6, flats in sun and shade are separate. Create a new column "flat2" that corrects for this.

```r
F4phyE.day35.v3 <- F4phyE.day35.v2 %>% unite("flat2",c("treatment","flat"),sep="_", remove=FALSE)
F4phyE.day35.v3
```

```
## # A tibble: 88 x 14
##    genotype flat2 treatment  flat   day   epi  int1  int2  int3  pet1  pet2
##    <chr>    <chr> <chr>     <dbl> <dbl> <dbl> <dbl> <dbl> <dbl> <dbl> <dbl>
##  1 phyB1/B2 shad… shade         1    35  58.8 40.6   72.3  52.7  42.2  49.6
##  2 phyB1/B2 shad… shade         1    35  69.6  4.91  56.6  35.5  49.8  34.6
##  3 phyB1/B2 shad… shade         2    35  70.2 62.6   59.7  31.2  46.3  56.8
##  4 phyB1/B2 shad… shade         3    35  54.6 38.6   67.6  35.2  39.1  66.6
##  5 phyB1/B2 shad… shade         3    35  58.2 55.3  105.   40.0  44.8  65.3
##  6 phyB1/B2 shad… shade         5    35  59.9 58.7   74.8  33.3  36.4  39.3
##  7 phyB1/B2 sun_1 sun           1    35  37.4 28.1   32.3  15.4  32.5  39.8
##  8 phyB1/B2 sun_1 sun           1    35  66.5 36.1   25.8  19.1  50.5  49.3
##  9 phyB1/B2 sun_2 sun           2    35  44.0  3.02  37.0  12.2  36.1  40.6
## 10 phyB1/B2 sun_3 sun           3    35  67.7 41.2   30.4  20.6  45.8  53.2
## # … with 78 more rows, and 3 more variables: pet3 <dbl>, pet4 <dbl>,
## #   stem_length <dbl>
```
…
```
## # A tibble: 88 x 6
##    genotype treatment   g_i shade_i flat2 stem_length
##    <chr>    <chr>     <int>   <int> <int>       <dbl>
##  1 phyB1/B2 shade         4       1     1       224. 
##  2 phyB1/B2 shade         4       1     1       167. 
##  3 phyB1/B2 shade         4       1     2       224. 
##  4 phyB1/B2 shade         4       1     3       196. 
##  5 phyB1/B2 shade         4       1     3       258. 
##  6 phyB1/B2 shade         4       1     5       227. 
##  7 phyB1/B2 sun           4       0     7       113. 
##  8 phyB1/B2 sun           4       0     7       148. 
##  9 phyB1/B2 sun           4       0     8        96.2
## 10 phyB1/B2 sun           4       0     9       160. 
## # … with 78 more rows
```
…
